<?xml version="1.0" encoding="iso-8859-1"?>
<!-- Generator: Adobe Illustrator 19.0.0, SVG Export Plug-In . SVG Version: 6.00 Build 0)  -->
<svg version="1.1" id="Capa_1" xmlns="http://www.w3.org/2000/svg" xmlns:xlink="http://www.w3.org/1999/xlink" x="0px" y="0px"
	 viewBox="0 0 512 512" style="enable-background:new 0 0 512 512;" xml:space="preserve">
<g>
	<g>
		<path d="M491.7,281.642h-0.724L440.629,160.17c12.327-14.841,5.024-37.332-13.364-42.367L293.96,81.306
			c-2.771-6.162-6.968-11.544-12.176-15.724V46.343c0-14.582-11.863-26.445-26.445-26.445c-14.581,0-26.443,11.863-26.443,26.445
			v19.239c-5.209,4.18-9.407,9.562-12.178,15.725L83.411,117.804c-19.041,5.214-25.901,28.806-12.466,43.391L21.021,281.642
			C8.127,281.642,0,291.474,0,301.942v6.997c0,11.193,9.106,20.3,20.3,20.3h4.986c27.449,46.624,94.89,46.544,122.297,0h4.989
			c11.193,0,20.299-9.105,20.299-20.3v-6.997c0-10.435-8.089-20.3-21.023-20.3L104.3,166.921l124.595-34.113v244.963h-2.397
			c-10.478,0-19.005,8.525-19.005,19.005c0,10.34-0.119,11.033,0.434,13.593h-18.723c-11.193,0-20.299,9.106-20.299,20.302v13.852
			c-11.013,0.21-19.911,9.218-19.911,20.282v6.997c0,11.193,9.105,20.299,20.299,20.299h68.546c4.143,0,7.499-3.357,7.499-7.499
			s-3.357-7.499-7.499-7.499h-68.546c-2.923,0-5.301-2.378-5.301-5.301v-6.997c0-2.924,2.378-5.303,5.301-5.303
			c6.286,0,161.947,0,172.091,0c2.923,0,5.301,2.379,5.301,5.303v6.997c0,2.923-2.378,5.301-5.301,5.301h-68.548
			c-4.142,0-7.499,3.357-7.499,7.499s3.358,7.499,7.499,7.499h68.548c11.193,0,20.3-9.105,20.3-20.299v-6.997
			c0-11.062-8.896-20.071-19.909-20.282v-13.852c0-11.194-9.106-20.302-20.301-20.302h-18.724c0.546-2.527,0.433-3.122,0.433-13.593
			c0-10.478-8.526-19.005-19.007-19.005h-2.395V274.046c0-4.143-3.357-7.499-7.499-7.499s-7.499,3.357-7.499,7.499v103.727h-22.891
			V139.361c7.221,2.062,15.528,2.091,22.891-0.001v99.688c0,4.143,3.357,7.499,7.499,7.499s7.499-3.357,7.499-7.499v-106.24
			l125.779,34.439L360.15,281.641c-12.897,0-21.021,9.834-21.021,20.299v6.997c0,11.193,9.107,20.299,20.301,20.299h4.988
			c27.443,46.614,94.883,46.556,122.297,0h4.987c11.193,0,20.3-9.105,20.3-20.299v-6.997C512,290.749,502.895,281.642,491.7,281.642
			z M78.935,181.09v100.553H37.258L78.935,181.09z M44.604,330.432h83.661C106.032,355.479,66.814,355.458,44.604,330.432z
			 M152.537,296.641c0,0,0,0,0.034,0c2.923,0,5.301,2.378,5.301,5.301v6.997c0,2.923-2.378,5.301-5.301,5.301H20.3
			c-2.923,0-5.301-2.378-5.301-5.301v-6.997c0-2.923,2.378-5.301,5.301-5.301C23.823,296.641,149.477,296.641,152.537,296.641z
			 M135.61,281.642H93.934V181.089L135.61,281.642z M91.432,154.691c-2.798,0.266-5.145-0.459-7.465-1.923
			c-8.13-5.542-5.916-17.946,3.406-20.5L213.015,97.87c-0.121,7.536,1.775,15.25,5.823,22.141
			C87.419,155.994,93.085,154.536,91.432,154.691z M243.893,46.343h0.001c0-6.313,5.135-11.446,11.444-11.446
			c6.313,0,11.446,5.135,11.446,11.446v11.5c-7.391-2.079-15.554-2.078-22.891-0.001V46.343z M321.476,425.368
			c2.924,0,5.302,2.379,5.302,5.303v13.833H183.905V430.67c0-2.924,2.378-5.303,5.301-5.303
			C195.742,425.368,316.433,425.368,321.476,425.368z M284.178,392.771c2.21,0,4.008,1.797,4.008,4.006v9.587
			c0,2.209-1.798,4.006-4.008,4.006h-57.68c-2.209,0-4.006-1.797-4.006-4.006v-9.587c0-2.209,1.797-4.006,4.006-4.006
			C233.38,392.771,277.434,392.771,284.178,392.771z M257.11,125.871c-10.596,0.686-20.442-4.798-25.563-13.844
			c-13.631-24.172,14.082-51.829,38.369-36.53C292.357,89.711,283.288,124.237,257.11,125.871z M433.065,181.09l41.676,100.553
			h-41.676V181.09z M291.842,120.013c4.042-6.957,5.945-14.524,5.822-22.141l125.64,34.398c6.088,1.667,9.685,7.976,8.02,14.063
			c-1.552,5.663-7.235,9.123-11.939,8.186c-0.658-0.133-1.317-0.175-1.962-0.134C416.64,154.188,293.157,120.372,291.842,120.013z
			 M418.066,181.084v100.559h-41.678L418.066,181.084z M383.735,330.432h83.661C445.164,355.48,405.946,355.458,383.735,330.432z
			 M497.002,308.939L497.002,308.939c-0.001,2.923-2.379,5.301-5.302,5.301H359.429c-2.924,0-5.302-2.378-5.302-5.301v-6.997
			c0-2.923,2.378-5.301,5.302-5.301c3.524,0,123.477,0,126.538,0c0.007-0.001,0.015-0.001,0.02,0h5.715
			c2.923,0,5.301,2.378,5.301,5.301V308.939z"/>
	</g>
</g>
<g>
</g>
<g>
</g>
<g>
</g>
<g>
</g>
<g>
</g>
<g>
</g>
<g>
</g>
<g>
</g>
<g>
</g>
<g>
</g>
<g>
</g>
<g>
</g>
<g>
</g>
<g>
</g>
<g>
</g>
</svg>
