<?xml version="1.0" encoding="iso-8859-1"?>
<!-- Generator: Adobe Illustrator 19.0.0, SVG Export Plug-In . SVG Version: 6.00 Build 0)  -->
<svg version="1.1" id="Capa_1" xmlns="http://www.w3.org/2000/svg" xmlns:xlink="http://www.w3.org/1999/xlink" x="0px" y="0px"
	 viewBox="0 0 512 512" style="enable-background:new 0 0 512 512;" xml:space="preserve">
<g>
	<g>
		<path d="M506.44,417.929v-46.412c0-9.493-6.821-17.413-15.817-19.141v-40.528c0-4.143-3.358-7.5-7.5-7.5
			c-4.142,0-7.5,3.357-7.5,7.5v40.168h-44.56c2.029-14.433-11.638-28.865-27.909-24.071c-1.919,0.576-1.605,0.494-6.279,2.536
			v-91.137h78.746v37.502c0,4.143,3.358,7.5,7.5,7.5c4.142,0,7.5-3.357,7.5-7.5v-37.512c4.064-0.089,7.334-3.404,7.334-7.491
			c0-4.087-3.27-7.402-7.334-7.491c0-11.217-0.926-16.272,4.055-21.692c8.193-8.914,17.338-16.064,17.321-34.801
			c0-0.272,0-130.903,0-142.796c0-10.755-8.748-19.502-19.501-19.502h-45.451C443.173,2.105,438.073,0,432.488,0
			c-5.586,0-10.687,2.105-14.561,5.559h-46.412c-9.493,0-17.413,6.821-19.141,15.817H239.275c0-10.242-15.001-10.251-15.001,0
			c-19.641,0-15.909,1.191-31.61-13.242c-0.12-0.11-0.244-0.216-0.371-0.318C188.67,4.897,180.683,0,167.857,0l-59.87,0.044
			C107.716,0.015,107.443,0,107.165,0C89.889,0,41.96,0,25.06,0C14.308,0,5.559,8.749,5.559,19.501v45.451
			C2.106,68.825,0,73.925,0,79.511c0,5.586,2.105,10.687,5.559,14.561v46.412c0,9.492,6.821,17.413,15.817,19.141v109.72
			c-11.263,0-11.281,15.001,0,15.001v14.945C21.386,313.983-0.026,315.287,0,344.142l0.044,59.87C0.015,404.281,0,404.555,0,404.832
			c0,17.278,0,65.206,0,82.107c0,10.753,8.748,19.501,19.501,19.501h45.452c8.32,7.418,20.807,7.41,29.118,0h46.413
			c9.493,0,17.413-6.821,19.141-15.817h116.691c0.904,8.916,14.018,8.927,14.924,0c7.569,0,12.727-0.9,18.102,4.055
			c8.265,7.596,15.389,17.321,34.801,17.321c0.278,0,130.893,0,142.797,0c10.753,0,19.501-8.748,19.501-19.501v-45.451
			C513.858,438.726,513.849,426.24,506.44,417.929z M486.938,367.016c2.481,0,4.5,2.019,4.5,4.5v14.056
			c-3.11-2.095-6.691-3.367-10.702-3.671c-0.519-0.035-1.011-0.058-1.527-0.058h-76.5c0.195-0.149,19.269-14.671,19.458-14.827
			C429.407,367.016,480.197,367.016,486.938,367.016z M492.497,20.559c2.481,0,4.5,2.018,4.5,4.5v13.165
			c-4.188-1.389-9.091-1.56-13.788,0.001c0-5.422,0.131-7.229-0.528-10.19c-0.229-1.024-0.459-1.745-0.459-1.745
			c-0.628-2.015-1.598-4.014-2.76-5.731H492.497z M371.515,20.56h14.056c-2.411,3.721-3.733,7.713-3.728,12.229v76.5
			c-0.102-0.134-14.721-19.329-14.827-19.459c-0.001-7.24-0.001-58.03-0.001-64.77C367.015,22.578,369.034,20.56,371.515,20.56z
			 M352.453,96.684c3.833,2.229,29.586,38.771,32.474,40.876c0.665,0.485,1.224,0.791,2.088,1.073
			c1.514,0.498,3.107,0.493,4.594,0.018c3.207-1.012,5.232-3.954,5.232-7.139c0-105.521-0.145-99.312,0.307-100.775
			c1.029-3.328,4.415-5.424,7.92-4.705c3.134,0.643,5.499,3.42,5.502,6.739v85.908c0,4.142,3.358,7.5,7.5,7.5
			c4.142,0,7.5-3.358,7.5-7.5V42.064c0.137-10.678-0.226-19.996,0.202-21.76c0.118-0.494,0.269-0.92,0.49-1.375
			c2.213-4.583,8.427-5.354,11.664-1.254c0.428,0.549,0.772,1.153,1.039,1.864c0.286,0.772,0.427,1.567,0.427,2.37
			c0,10.4,0,87.028,0,96.772c0,4.142,3.358,7.5,7.5,7.5s7.5-3.358,7.5-7.5V32.801c0-3.809,3.098-6.907,6.906-6.907
			s6.906,3.099,6.906,6.907v24.108c0,6.95,0,55.962,0,61.771c0,4.142,3.358,7.5,7.5,7.5c4.142,0,7.5-3.358,7.5-7.5V59.007
			c0-3.801,3.094-6.893,6.896-6.893c3.799,0,6.891,3.092,6.891,6.893c0.001,50.081-0.006,98.861,0.001,108.861
			c0.007,7.979-2.667,12.671-4.36,14.842c-18.073,19.663-17.016,19.468-17.016,41.63h-78.746c0-26.475-2.492-26.797-16.815-40.951
			c-0.04-0.042-0.082-0.084-0.124-0.125c-10.615-10.512-16.746-33.337-37.234-77.63c-0.207-0.448-0.321-0.797-0.438-1.212
			C340.709,98.813,347.14,93.615,352.453,96.684z M239.275,36.377h112.739v44.567c-16.292-2.192-30.446,14.525-22.969,30.898
			l1.434,3.282h-91.204V36.377z M25.06,15.001h13.165c-1.397,4.172-1.547,9.13,0.001,13.788c-4.732,0-7.85-0.284-11.932,0.986
			c-0.001,0-0.002,0-0.002,0c-2.014,0.629-4.012,1.596-5.731,2.76V19.501H20.56C20.56,17.02,22.579,15.001,25.06,15.001z
			 M19.914,86.123c-0.137-0.042-0.5-0.175-0.565-0.201c-0.188-0.077-0.322-0.141-0.504-0.229c-0.447-0.225-0.818-0.468-1.221-0.774
			c-3.573-2.839-3.429-8.178,0.052-10.849c0.545-0.425,1.157-0.777,1.865-1.039c0.768-0.286,1.569-0.427,2.369-0.427
			c10.981,0,84.978,0,96.773,0c4.142,0,7.5-3.358,7.5-7.5c0-4.142-3.358-7.5-7.5-7.5c-10.754,0-75.132,0-85.88,0
			c-3.809,0-6.907-3.098-6.907-6.906c0-3.808,3.099-6.906,6.907-6.906c9.692,0,72.65,0,85.88,0c4.142,0,7.5-3.358,7.5-7.5
			c0-4.142-3.358-7.5-7.5-7.5c-7.462,0-52.198,0-59.673,0c-3.801,0-6.893-3.094-6.893-6.896c0-3.799,3.092-6.891,6.893-6.891
			c94.273,0-3.364,0.083,108.894,0c7.96,0,12.643,2.669,14.809,4.361c19.618,18.032,19.412,17.015,41.563,17.015v78.746
			c-26.131,0-26.43,2.184-41.008,16.938c-10.511,10.614-33.342,16.749-77.629,37.234c-6.736,3.106-15.075-6.039-5.449-13.351
			l35.871-27.324c5.695-4.337,2.614-13.467-4.544-13.467H32.78c-3.793,0-6.881-3.068-6.885-6.836
			c-0.002-3.797,3.084-6.889,6.879-6.892h85.908c4.142,0,7.5-3.358,7.5-7.5c0-4.142-3.358-7.5-7.5-7.5
			c-86.744,0-75.756-0.006-76.733-0.006c-2.508,0-17.53,0-20.039,0c-0.471,0-0.932-0.048-1.376-0.139
			C20.491,86.272,20.034,86.159,19.914,86.123z M102.658,184.997c0.782,0,1.559-0.043,2.336-0.128
			c3.978-0.439,6.36-1.702,10.13-3.349v87.825H36.377v-109.36h44.541C79.193,172.522,89.243,184.997,102.658,184.997z
			 M20.56,140.483v-14.06c7.657,5.061,7.007,3.732,88.729,3.732c-0.178,0.135-19.284,14.685-19.459,14.827H28.877H25.06
			C22.578,144.983,20.56,142.964,20.56,140.483z M19.501,491.439c-2.481,0-4.5-2.019-4.5-4.5v-13.165
			c4.285,1.421,9.163,1.538,13.788-0.001c0,4.944-0.74,11.025,3.747,17.666H19.501z M144.983,486.939c0,2.481-2.018,4.5-4.5,4.5
			h-14.035c0.013-0.019,0.024-0.039,0.036-0.058c0.239-0.359,0.687-1.094,0.995-1.657c0.282-0.518,0.6-1.165,0.879-1.81
			c0.33-0.766,0.595-1.438,0.86-2.311c0.13-0.428,0.324-1.185,0.467-1.871c0.1-0.478,0.231-1.262,0.314-1.987
			c0.097-0.866,0.157-1.659,0.157-2.534v-76.499c0.227,0.298,14.594,19.165,14.827,19.458
			C144.983,429.408,144.983,480.198,144.983,486.939z M128.622,375.939c-1.95-2.56-5.314-3.591-8.365-2.561
			c-3.049,1.029-5.102,3.889-5.102,7.107c0,107.714,0.758,100.836-2.002,103.609c-1.283,1.292-3.002,2.009-4.841,2.01
			c-3.815,0-6.885-3.11-6.885-6.878v-85.908c0-4.143-3.358-7.5-7.5-7.5c-4.142,0-7.5,3.357-7.5,7.5
			c0,7.842,0.205,97.084-0.302,98.767c-0.12,0.393-0.275,0.759-0.428,1.066c-2.314,4.599-8.503,5.177-11.625,1.173
			c-0.412-0.527-0.768-1.135-1.04-1.869c-0.282-0.761-0.426-1.557-0.426-2.365c0-10.4,0-87.037,0-96.771c0-4.143-3.358-7.5-7.5-7.5
			c-4.142,0-7.5,3.357-7.5,7.5v85.88c0,3.809-3.098,6.906-6.906,6.906c-3.808,0-6.906-3.098-6.906-6.906c0-9.944,0-77.829,0-85.88
			c0-4.143-3.358-7.5-7.5-7.5c-4.142,0-7.5,3.357-7.5,7.5v59.673c0,3.801-3.094,6.893-6.896,6.893c-3.799,0-6.891-3.092-6.891-6.893
			c0-117.152,0.097,21.972,0-108.862c-0.007-7.979,2.667-12.672,4.361-14.842c18.407-20.024,17.015-18.891,17.015-44.942h78.746
			c0,10.624-1.472,26.154,7.787,35.322c19.764,19.577,12.589,9.356,46.324,86.559c1.75,4.017,0.052,7.541-3.217,9.211
			c-0.001,0-0.002,0.001-0.003,0.001c-0.896,0.458-2.226,0.914-3.778,0.76C157.767,415.746,157.597,413.978,128.622,375.939z
			 M276.277,381.874h-37.211c-4.142,0-7.5,3.358-7.5,7.5c0,4.143,3.358,7.5,7.5,7.5h37.211v78.746H159.984v-44.56
			c15.469,2.227,29.284-13.127,23.767-28.898c-0.373-1.074-0.452-1.218-2.231-5.29h22.543c4.142,0,7.5-3.357,7.5-7.5
			c0-4.142-3.358-7.5-7.5-7.5h-29.099c-19.99-45.747-22.522-54.2-32.388-63.845c-0.474-0.467-9.109-9.019-9.109-9.021
			c-4.389-4.347-3.342-17.97-3.342-24.664c12.473,0,10.766-15.001,1.389-15.001h-1.389v-94.38
			c45.833-20.028,54.153-22.501,63.829-32.373c12.351-12.541,9.74-12.467,30.501-12.467c1.719,7.787,12.914,7.815,14.64,0h97.941
			c20.019,45.813,22.475,54.107,32.373,63.829c0.324,0.318,9.125,9.034,9.125,9.034c4.047,4.008,3.342,15.505,3.342,21.353
			c-12.473,0-10.766,15.001-1.389,15.001h1.389v97.694l-46.522,20.328c-0.05,0.021-0.099,0.043-0.148,0.066
			c-4.966,2.299-12.286,7.055-17.159,11.978c-0.319,0.324-9.034,9.123-9.036,9.125c-3.632,3.666-13.297,3.342-17.732,3.342v-1.389
			C291.277,371.198,276.277,369.338,276.277,381.874z M486.938,496.997h-13.165c1.422-4.275,1.528-9.188-0.002-13.788
			c6.927,0,10.904,0.502,17.666-3.746v13.034h0.001C491.438,494.979,489.419,496.997,486.938,496.997z M493.074,438.708
			c-1.833,0.894-2.314,0.688-13.872,0.688c-7.847,0-70.037,0-85.884,0c-4.142,0-7.5,3.357-7.5,7.5s3.358,7.5,7.5,7.5h85.88
			c3.809,0,6.907,3.098,6.907,6.906c0,3.81-3.102,6.906-6.907,6.906h-24.107c-6.95,0-55.962,0-61.773,0c-4.142,0-7.5,3.357-7.5,7.5
			s3.358,7.5,7.5,7.5h59.673c3.801,0,6.892,3.094,6.892,6.897c0,3.8-3.092,6.891-6.892,6.891c-0.006,0-108.889,0-108.895,0
			c-7.957,0-12.642-2.669-14.809-4.36c-9.57-8.797-16.484-17.016-30.003-17.016h-8.007v-78.746
			c34.818,0,27.076-14.582,50.188-25.811c70.527-30.822,66.905-30.136,70.47-28.48c3.11,1.473,5.325,5.257,3.822,8.97
			c-1.249,3.007-0.104,1.571-39.817,31.822c-5.695,4.336-2.613,13.467,4.544,13.467c21.524,0,87.225,0,98.736,0
			c3.793,0,6.881,3.067,6.885,6.837c0.002,3.797-3.084,6.889-6.879,6.892h-85.908c-4.142,0-7.5,3.357-7.5,7.5s3.358,7.5,7.5,7.5
			c104.587,0,97.719-0.278,99.733,0.682C498.352,428.844,498.253,436.221,493.074,438.708z"/>
	</g>
</g>
<g>
</g>
<g>
</g>
<g>
</g>
<g>
</g>
<g>
</g>
<g>
</g>
<g>
</g>
<g>
</g>
<g>
</g>
<g>
</g>
<g>
</g>
<g>
</g>
<g>
</g>
<g>
</g>
<g>
</g>
</svg>
