{
  "paises": [
    {
      "id": 1,
      "nombre": "España"
    },
    {
      "id": 2,
      "nombre": "Estados Unidos"
    },
    {
      "id": 3,
      "nombre": "Alemania"
    },
    {
      "id": 4,
      "nombre": "Austría"
    }
  ],
  "Estado": [
    {
      "nombre": "Estado1",
      "id": 1
    },
    {
      "nombre": "Estado2",
      "id": 2
    },
    {
      "nombre": "Estado3",
      "id": 3
    },
    {
      "nombre": "Estado4",
      "id": 4
    }
  ],
  "Condado": [
    {
      "nombre": "Condado1",
      "id": 1
    },
    {
      "nombre": "Condado2",
      "id": 2
    },
    {
      "nombre": "Condado3",
      "id": 3
    },
    {
      "nombre": "Condado4",
      "id": 4
    }
  ]
}
