<?xml version="1.0" encoding="utf-8"?>
<!-- Generator: Adobe Illustrator 21.1.0, SVG Export Plug-In . SVG Version: 6.00 Build 0)  -->
<svg version="1.1" id="Capa_1" xmlns="http://www.w3.org/2000/svg" xmlns:xlink="http://www.w3.org/1999/xlink" x="0px" y="0px"
	 viewBox="0 0 512 512" style="enable-background:new 0 0 512 512;" xml:space="preserve">
<style type="text/css">
	.st0{fill:#A0A0A0;}
</style>
<g>
	<g>
		<path class="st0" d="M474.5,145.8l-18.3-32.5c-0.5-0.9-5.2-8.6-15.1-11.3c-9.4-2.5-18.1,0.6-26.5,5.5
			c-18.4,10.6-35.4,22.4-46.5,19.4c-4-1.1-8.1,1.3-9.2,5.3c-1.1,4,1.3,8.1,5.3,9.2c17.5,4.8,35.6-7.8,60-21.9
			c12.3-7.1,17.7-0.8,19,1.4l18.3,32.3c1.4,2.4,3.9,3.8,6.5,3.8C473.7,157,477.3,150.8,474.5,145.8z"/>
	</g>
</g>
<g>
	<g>
		<path class="st0" d="M506.6,201.7l-14.8-25.6c-2.1-3.6-6.7-4.8-10.3-2.7c-3.6,2.1-4.8,6.7-2.7,10.3l14.8,25.6
			c5.9,10.3,3.2,17.8-3.2,21.4c-0.1,0.1-3.3,1.9-3.4,2c-0.9,0.5,3.7-2.1-28.1,16.2c-10.7,6.2-17.6,16.9-19.5,22.8
			c-11.1,35.5-5,27.7-68.3,64.3c0.7-8.1-1.9-16.7-8-23.1c20.4-10.7,21.2-40,0.9-51.6l-93-53.7l15.4-8.9c2.8-1.6,4.2-4.8,3.6-8
			c-0.6-3.2-3.2-5.6-6.4-6c-0.3,0-68.5-8.8-68.7-8.8c-21.6-2.1-19.9-27.7-2.5-29.8c116.6-13.1,108.6-12.6,117.8-12.1
			c4.1,0.2,7.7-3,7.9-7.1c0.2-4.1-3-7.7-7.1-7.9c-11.1-0.5-7.7-0.4-74.9,7.1c-68-7.6-63.1-7.3-69.4-7.3c-23.5,0-38.9,8.5-46.5,8.5
			c-9,0-21.4-7.5-29.3-12c-16.3-9.6-15.4-8.9-15.4-8.9c-18.2-10.5-33.5-3.7-39.5,6.9c-25.6,45.4-22.4,39.9-50.4,88.4
			c-11,19.1-3.5,35.1,8.7,42l0,0c0,0-0.3-0.1,31.5,18.2c23.6,13.6,6.5,40.2,43.7,61.7c156.7,90.3,148.3,87.3,159.1,87.3
			c16.2,0,29.5-13.2,29.6-29.3c12.6,7.3,17.6,11.2,27.2,11.2c11.5,0,21.9-6.8,26.6-16.7c6.5-3.8-2.7,1.5,91-52.5
			c15.9-9.2,22.3-20.9,24.7-27.1c0.1-0.4,6.2-19.8,6.3-20.1c0.4-0.9,3.9-9.4,12.7-14.5c29.9-17.3,31.5-18.2,31.5-18.2l0,0
			C508.1,238,518.7,222.8,506.6,201.7z M210.3,240.6c6.1,3.5,131.9,76.2,138.7,80.1c9.7,5.6,9.7,19.5,0.1,25.1
			c-3.2,1.9-7,2.5-10.8,1.6c-3.1-0.7,7.6,5.1-145.2-83.1c-3.6-2.1-8.2-0.8-10.3,2.7s-0.8,8.2,2.7,10.3
			C321.9,356,315,351.2,317.7,355.8c7.4,12.6-6.8,27.5-19.8,19.9l-10.5-6.1l0,0c-4.6-2.6-18.1-10.4-24.3-14c0,0-92.8-53.6-93.1-53.8
			c-3.6-2.1-8.2-0.8-10.3,2.7c-2.1,3.6-0.8,8.2,2.7,10.3l93.1,53.8c12.8,7.4,7.6,27.1-7.3,27.1c-5.6,0,4,4.4-151.6-85.3
			c-11.7-6.8-16.4-14.9-18.1-19.3c-0.1-0.2-6.2-19.6-6.2-19.8c-0.2-0.6-5.1-14.4-19.4-22.6c-50.6-29.2-10.4-6-31.5-18.2
			c-7.9-4.7-8.1-13-3.2-21.4c30.5-52.8,19.7-33.9,50.5-88.4c0.4-0.6,3.2-4.7,8.8-4.7c4.9,0,9.1,2.4,20.9,9.4
			c38.3,22.7,40.1,18.4,68.2,10.7c13.4-3.1,20.6-2.7,32.2-1.4c-22.5,12.6-20.5,52.5,14.4,56c6,0.8,4.1,0.5,8.6,1.1
			c-0.1,2.7,1.3,5.3,3.7,6.7c141.1,81.5,132.1,76,134.3,78.2c10.5,11.1-1.4,28.4-15.2,23.7c-2.1-0.7,5.7,3.6-127-72.9
			c-3.6-2.1-8.2-0.8-10.3,2.7C205.4,234,206.7,238.6,210.3,240.6z"/>
	</g>
</g>
</svg>
